<?xml version="1.0" encoding="UTF-8" standalone="no"?>
<!-- Created with Inkscape (http://www.inkscape.org/) -->

<svg
   width="1195.804"
   height="1195.804"
   viewBox="0 0 316.38979 316.3898"
   version="1.1"
   id="svg315"
   inkscape:export-filename="/home/bmm/hugo-workspace/Ubucon-pt-2023/themes/ubuconasia/static/images/favicon/android-icon-36x36.png"
   inkscape:export-xdpi="2.8900001"
   inkscape:export-ydpi="2.8900001"
   inkscape:version="1.1.2 (0a00cf5339, 2022-02-04)"
   sodipodi:docname="galo_quadrado.svg"
   xmlns:inkscape="http://www.inkscape.org/namespaces/inkscape"
   xmlns:sodipodi="http://sodipodi.sourceforge.net/DTD/sodipodi-0.dtd"
   xmlns="http://www.w3.org/2000/svg"
   xmlns:svg="http://www.w3.org/2000/svg">
  <sodipodi:namedview
     id="namedview317"
     pagecolor="#ffffff"
     bordercolor="#666666"
     borderopacity="1.0"
     inkscape:pageshadow="2"
     inkscape:pageopacity="0.0"
     inkscape:pagecheckerboard="0"
     inkscape:document-units="mm"
     showgrid="false"
     width="1195.804px"
     units="px"
     inkscape:zoom="0.72960859"
     inkscape:cx="397.47339"
     inkscape:cy="-96.627152"
     inkscape:window-width="1920"
     inkscape:window-height="1017"
     inkscape:window-x="0"
     inkscape:window-y="0"
     inkscape:window-maximized="1"
     inkscape:current-layer="layer1" />
  <defs
     id="defs312" />
  <g
     inkscape:label="Camada 1"
     inkscape:groupmode="layer"
     id="layer1">
    <g
       id="g954"
       transform="translate(56.341333,-2.5828624)">
      <rect
         style="font-variation-settings:'wght' 800;fill:#ff6600;stroke-width:0.581161"
         id="rect2453"
         width="196.16159"
         height="316.38971"
         x="3.7727938"
         y="2.5828624" />
      <g
         id="g934"
         transform="translate(288.20499,59.392408)">
        <path
           d="m -220.80937,141.36294 c 0,0 17.89018,25.41876 18.30104,25.94932 0.41086,0.53056 0.89814,1.42157 1.92063,1.93898 -1.19286,-0.69791 -1.47115,-1.50676 -0.41415,-2.05895 0.55412,-0.28952 11.35369,-5.76655 19.68838,-10.02606 5.14423,-2.62923 9.34485,-4.81363 9.63246,-4.9703 0.75324,-0.41086 1.16081,-0.78803 1.76012,-1.62673 0.5993,-0.8387 7.63842,-10.92146 8.08351,-11.58925 0.66477,-0.99729 0.70559,-1.71547 0.41086,-3.16717 -0.22268,-1.09563 -11.3682,-56.093518 -11.3682,-56.093518 0,0 -14.1919,25.479298 -14.7156,26.388938 -0.25118,0.43661 -0.46811,1.18985 0.11394,1.84038 0.58205,0.65053 0.99291,0.99154 0.99291,0.99154 l -8.66228,1.94145 -15.5702,-37.756318 -6.67043,20.05787 32.4461,46.465988 16.27797,-17.53164 c 0,0 -5.54523,24.93231 -6.01745,27.06248 -0.16571,0.74776 -0.39168,1.95569 -1.66398,2.18549 -3.97794,0.71846 -20.54542,3.69034 -22.09738,3.95466 -0.98798,0.16845 -1.53141,0.0718 -2.51665,-0.59054 -1.57331,-1.05728 -19.9316,-13.36662 -19.9316,-13.36662 z"
           id="path42"
           style="fill:#ffffff;stroke-width:0.273906"
           inkscape:connector-curvature="0" />
        <path
           d="m -239.48703,56.909732 23.13247,8.513 -5.22722,23.87421 c 0,0 -12.86182,-9.15504 -14.20176,-10.10549 -0.49523,-0.35115 -0.63848,-0.7716 -0.47085,-1.79765 0.20872,-1.27695 2.19892,-12.35892 2.36819,-13.32718 0.10546,-0.60341 -0.3947,-0.90937 -0.98277,-0.60615 -0.53741,0.27719 -10.72206,5.55618 -11.2759,5.83173 -0.60642,0.30185 -0.89211,-0.0479 -0.48782,-0.79597 0.34238,-0.63327 7.14566,-11.5865 7.14566,-11.5865 z"
           id="path44"
           inkscape:connector-curvature="0"
           style="fill:#ffffff;stroke-width:0.273906" />
        <path
           d="m -153.5435,45.13834 c 0.3569,-0.769676 1.84065,-1.249012 3.10747,-0.592459 2.34573,1.215596 30.2039,16.656781 33.18099,18.517151 0.6393,0.39936 1.26764,1.53196 0.73215,2.93874 -1.31228,3.44656 -8.59298,22.73695 -8.59298,22.73695 l -41.95941,19.244918 -5.71916,-28.263548 z"
           id="path46"
           inkscape:connector-curvature="0"
           style="fill:#ffffff;stroke-width:0.273906" />
        <path
           d="m -217.30638,93.183672 32.4461,46.465988 c 0,0 -11.56651,12.4441 -13.82624,14.90049 -0.42976,0.46728 -1.00112,1.00058 -2.10277,0.25994 -7.71238,-5.18532 -28.11757,-18.88748 -28.91984,-19.4131 -0.92388,-0.60506 -1.19012,-1.40185 -0.73051,-2.7733 1.7919,-5.34638 13.13326,-39.440018 13.13326,-39.440018 z"
           id="path59"
           style="fill:#ffffff;stroke-width:0.273906"
           inkscape:connector-curvature="0" />
        <path
           d="m -225.47262,45.935407 14.33104,-13.93881 c 0,0 -14.60933,-26.2098054 -15.07223,-27.0463154 -0.46372,-0.838153 -1.25175,-0.721195 -1.57934,-0.534938 -4.02725,2.289581 -27.77573,16.1004774 -31.93637,18.6239744 -0.60588,0.367582 -0.47331,1.247643 -0.18242,1.426777 2.87903,1.77546 34.43932,21.469312 34.43932,21.469312 z"
           id="path61"
           inkscape:connector-curvature="0"
           style="fill:#ffffff;stroke-width:0.273906" />
        <path
           d="m -198.69775,170.18855 c 0,0 -13.8465,26.7231 -14.15465,27.37363 -0.17338,0.36594 -0.28239,0.61629 -0.14243,0.94635 -0.063,-0.2016 0.0496,-0.35088 0.33088,-0.41579 2.80644,-0.64642 44.95101,-10.3931 46.52104,-10.78204 1.00168,-0.24816 0.85432,-1.10166 0.33883,-1.35338 -2.20468,-1.07645 -32.89367,-15.76877 -32.89367,-15.76877 z"
           id="path63"
           inkscape:connector-curvature="0"
           style="fill:#ffffff;stroke-width:0.273906" />
        <path
           id="polygon65"
           d="m -125.11615,88.738172 -22.24364,10.20191 12.33016,16.059388 z"
           style="fill:#ffffff;stroke-width:0.273906" />
        <path
           d="m -216.35456,65.422732 c 0,0 -13.99359,63.902308 -14.4302,65.948108 -0.24569,1.15178 -0.46646,3.10281 0.87924,3.88646 -0.85787,-0.62122 -0.88937,-1.56154 -0.5626,-2.54267 0.44263,-1.329 20.59391,-61.831578 20.91958,-62.878718 0.23967,-0.7705 0.28048,-1.74615 -0.95073,-2.23398 -0.6623,-0.2624 -5.85529,-2.1792 -5.85529,-2.1792 z"
           id="path67"
           inkscape:connector-curvature="0"
           style="fill:#ffffff;stroke-width:0.273906" />
        <path
           d="m -260.2724,24.615922 c 0.16873,1.498541 2.46187,21.925366 2.67908,23.889821 0.13339,1.206282 0.4073,1.934873 1.46019,2.311494 3.16389,1.131775 41.6866,15.277665 45.54895,16.750455 1.01154,0.38566 1.3268,1.0529 1.03564,2.26822 0.37662,-1.0014 0.2183,-2.04745 -0.10271,-3.08145 -0.62478,-2.01211 -3.01955,-9.92444 -3.60351,-11.84644 -0.37389,-1.23038 -0.80063,-1.79025 -1.73931,-2.38545 -9.05616,-5.743534 -42.79893,-26.772131 -44.86884,-28.02169 -0.34676,-0.209265 -0.36868,-0.79652 -0.12736,-1.220252 -0.25638,0.342382 -0.3591,0.650527 -0.28213,1.335292 z"
           id="path69"
           inkscape:connector-curvature="0"
           style="fill:#ffffff;stroke-width:0.273906" />
        <path
           d="m -227.69701,4.3687796 c 0.75543,-0.390043 1.38897,-0.441263 2.21069,-0.116137 0.82172,0.325127 32.06428,15.0306004 32.98871,15.4929544 0.92444,0.462353 1.31831,1.164101 1.1641,2.259726 -0.15421,1.095624 -3.95465,38.466559 -3.95465,38.466559 0,0 -30.56629,-54.9096934 -30.92565,-55.5259824 -0.35937,-0.616289 -0.91594,-0.774607 -1.4832,-0.57712 z"
           id="path71"
           inkscape:connector-curvature="0"
           style="fill:#ffffff;stroke-width:0.273906" />
        <path
           d="m -178.92227,50.363922 c 4.73638,-1.2019 23.93282,-5.778598 25.40507,-6.086743 1.47224,-0.308144 2.1225,-0.228163 3.08117,0.251172 -1.03838,-0.433867 -2.53336,-0.433867 -3.13814,0.662032 -0.62999,1.14164 -33.41683,60.042417 -33.82769,60.727187 -0.41086,0.68476 -0.52508,1.23257 -0.0457,1.98581 -0.78748,-0.9814 -1.19834,-1.6207 -1.74615,-3.70923 -0.54781,-2.08854 -6.16289,-23.384738 -6.40256,-24.548838 -0.23966,-1.1641 -0.23966,-2.0543 0.41086,-3.18416 0.65053,-1.12986 13.93498,-23.72712 14.41431,-24.58308 0.47934,-0.855954 0.87267,-1.266539 1.84887,-1.51415 z"
           id="path73"
           inkscape:connector-curvature="0"
           style="fill:#ffffff;stroke-width:0.273906" />
        <path
           d="m -116.75681,63.541822 c 0.37663,0.4566 0.50235,0.89019 0.60506,1.8831 0.10272,0.99291 3.56133,47.650628 3.67473,49.063438 0.0937,1.16493 0.28212,2.13428 -0.88472,3.16389 -1.501,1.32406 -34.34646,30.9262 -34.34646,30.9262 0,0 30.49671,-80.760408 31.2253,-82.731158 0.26295,-0.71106 0.17119,-1.65494 -0.27391,-2.30547 z"
           id="path88"
           style="fill:#ffffff;stroke-width:0.273906"
           inkscape:connector-curvature="0" />
        <path
           d="m -246.81676,69.145662 c 0.057,0.30815 0.29144,0.34622 0.81022,0.08 5.38088,-2.76344 8.72966,-4.52247 11.1047,-5.75203 0.68148,-0.3528 1.1148,0.0427 1.01564,0.59355 -0.36429,2.02581 -0.76337,4.25048 -0.76337,4.25048 0,0 -8.73843,1.27393 -10.92311,1.5588 -0.52507,0.0679 -1.34679,0.0225 -1.24408,-0.73079 z"
           id="path90"
           inkscape:connector-curvature="0"
           style="fill:#ffffff;stroke-width:0.273906" />
        <path
           d="m -200.68932,154.8498 c 0.54781,0.38512 1.2156,0.50509 1.90885,-0.22268 0.72695,-0.76283 30.19816,-32.50938 30.19816,-32.50938 0,0 -5.94048,26.75735 -6.14591,27.63029 -0.20543,0.87294 -0.43661,1.42102 -1.57496,1.62645 -1.06084,0.19146 -20.60651,3.71965 -22.25488,4.00588 -0.9373,0.16297 -1.46512,-0.0849 -2.13126,-0.53056 z"
           id="path103"
           style="fill:#ffffff;stroke-width:0.273906"
           inkscape:connector-curvature="0" />
        <path
           d="m -181.3132,157.1665 c 0,0 14.19738,25.03968 15.77946,28.05402 0.45578,0.86828 0.45222,1.51771 -0.19968,1.92008 0.42921,-0.24405 0.4892,-0.91731 -0.12709,-1.21395 -0.61629,-0.29664 -33.30781,-15.96736 -34.10131,-16.34289 -1.70041,-0.80473 -2.31314,-1.75053 -0.94717,-2.44242 1.54127,-0.78063 19.59579,-9.97484 19.59579,-9.97484 z"
           id="path105"
           inkscape:connector-curvature="0"
           style="fill:#ffffff;stroke-width:0.273906" />
        <path
           d="m -212.61848,198.73176 c -0.4566,-0.0227 -0.56726,-0.51796 -0.0742,-0.63355 1.01482,-0.23775 46.54679,-10.78532 46.54679,-10.78532 0,0 2.20851,9.12463 2.44817,10.41993 0.0679,0.36759 -0.006,0.67902 -0.5878,0.67902 -0.58205,0 -48.33293,0.31992 -48.33293,0.31992 z"
           id="path107"
           inkscape:connector-curvature="0"
           style="fill:#ffffff;stroke-width:0.273906" />
      </g>
    </g>
  </g>
</svg>
